Ames Housing Project - Exploratory Analysis
…
The correlation matrix shows some dark blue areas where variables are highly correlated to each other. To be more specific, Garage.Area is highly correlated Garage.Cars or other pairs such Gr.Liv.Area with TotRms.AbvGrd; Garage.Yr.Blt with Year.Built. These pairs indicate the strong correlation and multi-collinearity. When we check these variables meaning, they give almost similar information. Here, the correlation matrix is a crucial method to detect the multi-collinear problems in the feature selection process.

# Calculate correlation matrix for all numerical features against SalePrice
m_cor_SalePrice <- round(
  cor(d_house_numeric, d_house["SalePrice"], use = "complete", ) ,2)

# Transform into tibble and sort correlation in a descending order
d_cor_SalePrice <- tibble(var_name = row.names(m_cor_SalePrice), 
       SalePrice = m_cor_SalePrice[, "SalePrice"]) %>% 
  arrange(desc(SalePrice))
d_cor_SalePrice 

## # A tibble: 37 x 2
##    var_name       SalePrice
##    <chr>              <dbl>
##  1 SalePrice           1   
##  2 Overall.Qual        0.8 
##  3 Gr.Liv.Area         0.71
##  4 Garage.Cars         0.66
##  5 Total.Bsmt.SF       0.65
##  6 Garage.Area         0.65
##  7 X1st.Flr.SF         0.64
##  8 Year.Built          0.56
##  9 Full.Bath           0.56
## 10 Year.Remod.Add      0.54
## # ... with 27 more rows
…
# A summary table of missing values in each column
d_summary_missing_value <- cbind(d_number_missing_values, d_perc_missing_values)

# Change the summary missing values to tibble
d_summary_missing_value <- tibble(var_name = row.names(d_summary_missing_value), 
       n_missing = d_summary_missing_value[, "number"],
       perc_missing = d_summary_missing_value[, "ratio"]) %>% 
  arrange(desc(perc_missing)) 
d_summary_missing_value 

## # A tibble: 80 x 3
##    var_name      n_missing perc_missing
##    <chr>             <dbl>        <dbl>
##  1 Pool.QC            2917         1   
##  2 Misc.Feature       2824         0.96
##  3 Alley              2732         0.93
##  4 Fence              2358         0.8 
##  5 Fireplace.Qu       1422         0.49
##  6 Lot.Frontage        490         0.17
##  7 Garage.Type         157         0.05
##  8 Garage.Yr.Blt       159         0.05
##  9 Garage.Finish       157         0.05
## 10 Garage.Qual         158         0.05
## # ... with 70 more rows
…
This final model were chosen based on the lowest RMSE and the highest adjusted R squared from the previous part. Notably, the adjusted R-squared to compare the goodness-of-fit for regression models that contain differing numbers of independent variables. Thats why we use this to evaluate the models.

8.2.2 Prediction

Its important to examine visually the prediction errors of the model. We present predicted value in the original unit of the house price by applying the function exp().

# Make predictions from the model, exponential back the value
d_house_lm <- d_house %>% 
  mutate(pred_lm = exp(predict(lm_final)))

d_house_lm %>%  select(SalePrice, pred_lm)

## # A tibble: 2,925 x 2
##    SalePrice pred_lm
##        <int>   <dbl>
##  1    215000 179503.
##  2    105000 114062.
##  3    172000 155205.
##  4    244000 273057.
##  5    189900 173317.
##  6    195500 197392.
##  7    213500 205597.
##  8    191500 194188.
##  9    236500 239270.
## 10    189000 216906.
## # ... with 2,915 more rows
…
